trace.vcd
$version Generated by VerilatedVcd $end
$timescale 1s $end
 $scope module TOP $end
  $scope module svsimTestbench $end
   $var wire 1 * clock [0:0] $end
   $var wire 1 + reset [0:0] $end
   $var wire 32 # io_res [31:0] $end
   $var wire 1 , io_en [0:0] $end
   $scope module dut $end
    $var wire 1 * clock $end
    $var wire 1 + reset $end
    $var wire 1 , io_en $end
    $var wire 32 # io_res [31:0] $end
    $var wire 1 , io_en_0 $end
    $var wire 1 , pred_io_en $end
    $var wire 32 # io_res_0 [31:0] $end
    $var wire 2 $ counter [1:0] $end
    $scope module regfile $end
     $var wire 1 * clock $end
     $var wire 1 + reset $end
     $var wire 2 $ io_r_addr [1:0] $end
     $var wire 2 $ io_w_addr [1:0] $end
     $var wire 32 % io_w_data [31:0] $end
     $var wire 1 , io_w_en $end
     $var wire 32 # io_r_data [31:0] $end
     $var wire 2 $ io_r_addr_0 [1:0] $end
     $var wire 2 $ io_w_addr_0 [1:0] $end
     $var wire 32 % io_w_data_0 [31:0] $end
     $var wire 1 , io_w_en_0 $end
     $var wire 2 $ probe_BVwQJPGjsMFtphCfLLpF [1:0] $end
     $var wire 2 $ probe_XtoiZAfAAwiuhrYBJpIt [1:0] $end
     $var wire 1 , pred_io_w_en $end
     $var wire 32 # io_r_data_0 [31:0] $end
     $var wire 32 & registers_0 [31:0] $end
     $var wire 32 ' registers_1 [31:0] $end
     $var wire 32 ( registers_2 [31:0] $end
     $var wire 32 ) registers_3 [31:0] $end
    $upscope $end
   $upscope $end
  $upscope $end
 $upscope $end
$enddefinitions $end


#0
b00000000000000000000000000000000 #
b00 $
b00000000000000000000000000000001 %
b00000000000000000000000000000000 &
b00000000000000000000000000000000 '
b00000000000000000000000000000000 (
b00000000000000000000000000000000 )
0*
0+
0,
#1
1*
#2
0*
1,
#3
b01 $
b00000000000000000000000000000001 &
1*
#4
0*
#5
b10 $
b00000000000000000000000000000001 '
1*
#6
0*
#7
b11 $
b00000000000000000000000000000001 (
1*
#8
0*
#9
b00000000000000000000000000000001 #
b00 $
b00000000000000000000000000000010 %
b00000000000000000000000000000001 )
1*
#10
0*
#11
b01 $
b00000000000000000000000000000010 &
1*
#12
0*
#13
b10 $
b00000000000000000000000000000010 '
1*
#14
0*
#15
b11 $
b00000000000000000000000000000010 (
1*
#16
0*
#17
b00000000000000000000000000000010 #
b00 $
b00000000000000000000000000000011 %
b00000000000000000000000000000010 )
1*
#18
0*
#19
b01 $
b00000000000000000000000000000011 &
1*
#20
0*
#21
b10 $
b00000000000000000000000000000011 '
1*
#22
0*
#23
b11 $
b00000000000000000000000000000011 (
1*
#24
0*
#25
b00000000000000000000000000000011 #
b00 $
b00000000000000000000000000000100 %
b00000000000000000000000000000011 )
1*
#26
0*
#27
b01 $
b00000000000000000000000000000100 &
1*
#28
0*
#29
b10 $
b00000000000000000000000000000100 '
1*
#30
0*
#31
b11 $
b00000000000000000000000000000100 (
1*
#32
0*
#33
b00000000000000000000000000000100 #
b00 $
b00000000000000000000000000000101 %
b00000000000000000000000000000100 )
1*
#34
0*
#35
b01 $
b00000000000000000000000000000101 &
1*
#36
0*
#37
b10 $
b00000000000000000000000000000101 '
1*
#38
0*
#39
b11 $
b00000000000000000000000000000101 (
1*
#40
0*
#41
b00000000000000000000000000000101 #
b00 $
b00000000000000000000000000000110 %
b00000000000000000000000000000101 )
1*
#42
0*
#43
b01 $
b00000000000000000000000000000110 &
1*
#44
0*
#45
b10 $
b00000000000000000000000000000110 '
1*
#46
0*
#47
b11 $
b00000000000000000000000000000110 (
1*
#48
0*
#49
b00000000000000000000000000000110 #
b00 $
b00000000000000000000000000000111 %
b00000000000000000000000000000110 )
1*
#50
0*
#51
b01 $
b00000000000000000000000000000111 &
1*
#52
0*
#53
b10 $
b00000000000000000000000000000111 '
1*
#54
0*
#55
b11 $
b00000000000000000000000000000111 (
1*
#56
0*
#57
b00000000000000000000000000000111 #
b00 $
b00000000000000000000000000001000 %
b00000000000000000000000000000111 )
1*
#58
0*
#59
b01 $
b00000000000000000000000000001000 &
1*
#60
0*
#61
b10 $
b00000000000000000000000000001000 '
1*
#62
0*
#63
b11 $
b00000000000000000000000000001000 (
1*
#64
0*
#65
b00000000000000000000000000001000 #
b00 $
b00000000000000000000000000001001 %
b00000000000000000000000000001000 )
1*
#66
0*
#67
b01 $
b00000000000000000000000000001001 &
1*
#68
0*
#69
b10 $
b00000000000000000000000000001001 '
1*
#70
0*
#71
b11 $
b00000000000000000000000000001001 (
1*
#72
0*
#73
b00000000000000000000000000001001 #
b00 $
b00000000000000000000000000001010 %
b00000000000000000000000000001001 )
1*
#74
0*
#75
b01 $
b00000000000000000000000000001010 &
1*
#76
0*
#77
b10 $
b00000000000000000000000000001010 '
1*
#78
0*
#79
b11 $
b00000000000000000000000000001010 (
1*
#80
0*
#81
b00000000000000000000000000001010 #
b00 $
b00000000000000000000000000001011 %
b00000000000000000000000000001010 )
1*
